<?xml version="1.0" encoding="UTF-8" standalone="no"?>
<!-- Created with Inkscape (http://www.inkscape.org/) -->
<svg
    xmlns:inkscape="http://www.inkscape.org/namespaces/inkscape"
    xmlns:rdf="http://www.w3.org/1999/02/22-rdf-syntax-ns#"
    xmlns="http://www.w3.org/2000/svg"
    xmlns:cc="http://creativecommons.org/ns#"
    xmlns:dc="http://purl.org/dc/elements/1.1/"
    xmlns:sodipodi="http://sodipodi.sourceforge.net/DTD/sodipodi-0.dtd"
    xmlns:svg="http://www.w3.org/2000/svg"
    xmlns:ns1="http://sozi.baierouge.fr"
    xmlns:xlink="http://www.w3.org/1999/xlink"
    id="svg2"
    sodipodi:docname="woman_star.svg"
    viewBox="0 0 1119.9 1066.1"
    version="1.1"
    inkscape:version="0.47 r22583"
  >
  <sodipodi:namedview
      id="base"
      bordercolor="#666666"
      inkscape:pageshadow="2"
      inkscape:guide-bbox="true"
      pagecolor="#ffffff"
      inkscape:window-height="652"
      inkscape:window-maximized="1"
      inkscape:zoom="0.24933097"
      inkscape:window-x="-4"
      showgrid="false"
      borderopacity="1.0"
      inkscape:current-layer="layer1"
      inkscape:cx="279.2099"
      inkscape:cy="753.11432"
      showguides="true"
      inkscape:window-y="40"
      inkscape:window-width="936"
      inkscape:pageopacity="0.0"
      inkscape:document-units="px"
  />
  <g
      id="layer1"
      inkscape:label="Ebene 1"
      inkscape:groupmode="layer"
      transform="translate(132.78 -92.108)"
    >
    <path
        id="path2976"
        style="fill:#000000"
        d="m426.11 111.2-121.07 351.44c-5.3244-11.74-11.069-24.648-13.559-31.155-2.5428-6.6462-16.753-61.467-16.753-61.467l-6.0864-26.606c-2.9786-5.8545-4.1241-10.534-4.0375-15.487 0.12649-7.2313 4.284-25.664 8.7681-38.929 1.6402-4.8523 2.983-9.2138 2.983-9.672 0-0.45826-1.5679 0.075-3.4349 1.2052-2.5838 1.5643-3.4893 2.99-3.8869 5.9057-0.91505 6.7113-8.6449 10.111-15.096 6.6589-5.3154-2.8447-3.9989-8.4286 2.6816-11.42 4.5688-2.0455 4.4422-2.2404-2.8624-3.7061-4.1562-0.83396-6.8872-3.6673-5.5742-5.7851 0.75641-1.2201-0.0905-1.8645-3.9471-3.1035-6.6571-2.1387-14.321-11.223-13.318-15.789 0.5999-2.7313 0.41543-3.0432-2.0489-3.0432-0.23667 0-0.45189-0.0177-0.66287 0-3.1648 0.26636-3.4732 2.6522-1.6873 10.787 1.8219 8.2989 3.1303 23.007 1.9886 22.448-8.7072-4.2687-8.5138-4.098-7.8943-8.6174 0.67401-4.9176-1.2827-7.4458-6.5384-8.4969-2.6492-0.52983-3.3347-0.19675-4.3991 2.1393-0.68895 1.5121-1.2354 3.7114-1.2354 4.8812 0 3.497-2.4987 1.573-3.7362-2.8624-0.92045-3.2989-1.6735-4.1328-3.917-4.3991-2.438-0.28936-2.7842 0.0456-2.772 2.6214 0.008 1.6179 1.3955 6.8982 3.1035 11.781 1.708 4.8829 3.1161 10.524 3.1336 12.534 0.0175 2.0106 0.97994 7.2015 2.1092 11.51 1.1292 4.3085 2.0393 9.5109 2.0489 11.57 0.0207 4.3202 3.1347 14.287 7.3519 23.592 3.3552 7.4032 4.2793 13.609 7.3519 49.957 1.1655 13.787 2.3771 27.467 2.7118 30.372l0.60261 5.2729-0.36157 0.0904 5.0017 42.123c1.9583 7.3232 5.0262 18.718 7.8642 29.287l-351.66 8.1353 324.63 244.72-116.63 389.4 333.07-233.11 334.33 231.31-118.81-388.83 323.25-246.51-406.47-7.14-134.53-383.62zm-0.51223 122.66 104.13 298.96 316.52 6.2371l-252.16 191.42 91.86 302.92-259.96-180.62-259.73 181.02 91.47-303.11-252.4-191.09 243.73-5.12c2.9687 10.979 6.002 22.155 9.0393 33.295l-151.68 2.6515 186.15 141.95c0.43269 6.4231 0.63535 11.8 0.72314 15.337 0.1137 0.44652 0.22446 0.88045 0.33144 1.3258 0.0996 0.41478 0.21496 0.99967 0.33144 1.6572l-66.24 216.69 190.61-131.85c-1.292-3.1022-2.4588-5.9858-3.4952-8.5572h0.45197l-3.2843-6.5384c-1.8024-3.5904-5.3197-8.7155-7.834-11.42-4.4022-4.7344-5.3285-7.1451-3.9773-10.666 0.49101-1.2796 1.5791-1.503 4.7607-0.99432 3.0885 0.49389 4.5792 0.15881 6.0864-1.2052 1.8423-1.6673 2.17-1.6307 4.369-0.0903 0.57549 0.40308 1.2748 0.7417 2.0489 0.99432 0.77408 0.25263 1.6306 0.4106 2.531 0.51223 3.0013 0.33876 6.4956-0.15422 9.1598-1.5066 11.144-5.6569 27.277-25.478 42.424-52.096 4.7038-8.2659 13.649-29.185 13.649-31.909 0-0.16653 0.0143-0.3238 0.0301-0.45196 0.002-0.0117-0.002-0.0188 0-0.0301 0.004-0.0258 0.026-0.0362 0.0301-0.0603 0.0173-0.10124 0.0316-0.19945 0.0603-0.27118 0.071-0.17763 0.16336-0.25219 0.3013-0.24105 0.0689 0.006 0.12386 0.0378 0.21092 0.0903 0.0871 0.0526 0.19584 0.14087 0.30131 0.24104s0.20721 0.21336 0.33144 0.36157c0.10893 0.12998 0.23797 0.31481 0.36157 0.4821 0.0173 0.0235 0.0426 0.0361 0.0603 0.0603 0.28897 0.39776 0.59447 0.84481 0.96419 1.4463 0.36498 0.59077 0.75921 1.287 1.2052 2.079 0.36544 0.64891 0.78376 1.4131 1.2052 2.1996 0.093 0.17344 0.17546 0.30191 0.27118 0.4821 0.55074 1.0364 1.071 2.0485 1.7175 3.3144 8.8026 17.237 20.576 31.035 26.455 31.035 0.13619 0 0.29022 0.0285 0.48209 0.0603 0.15251 0.0257 0.32651 0.0453 0.51223 0.0904 0.0529 0.0125 0.0951 0.016 0.15065 0.0301 0.39163 0.0999 0.84075 0.24888 1.3559 0.42183 0.57065 0.1916 1.1966 0.42236 1.8982 0.69301 0.60914 0.23499 1.296 0.49668 1.9886 0.78341 0.10516 0.0436 0.1944 0.0759 0.3013 0.12052 0.38653 0.15975 0.73709 0.30866 1.145 0.48209 3.0314 1.2984 6.5756 2.9574 10.244 4.7306v-0.0301c10.191 4.929 20.965 10.788 22.026 12.504 0.7843 1.269-4.7476 12.169-11.42 22.448-2.678 4.1253-6.4054 9.1379-10.606 14.312-0.69603 0.85735-1.3895 1.6976-2.1092 2.5611-1.0125 1.2151-2.0566 2.4337-3.1035 3.6458-0.15419 0.17844-0.2972 0.3642-0.45196 0.54236-0.89635 1.0324-1.8017 2.057-2.7118 3.0734-0.0804 0.0899-0.16053 0.18153-0.24105 0.27117-0.98662 1.0987-1.9921 2.1891-2.983 3.2541l-3.3747 3.676h1.0847c-3.0535 3.2546-6.5128 6.7693-10.305 10.455-7.2545 5.321-18.675 11.763-36.097 16.964-4.2962 1.2824-8.3402 2.3034-12.113 3.1035l159.33 111.51-69.21-231.07 192.63-145.2-213.87-4.97c-0.0436-6.6331-2.5333-17.08-5.3332-22.568-0.18167-0.35609-0.30265-0.63379-0.45196-0.93405l-0.18078-0.15066s-0.10074-0.33896-0.21092-0.69301c-0.27906-0.60504-0.44917-1.0463-0.45196-1.2956-0.68429-1.7776-1.892-4.2845-3.6458-5.4537-2.8759-1.9173-3.5967-2.378-5.514-7.1712s-10.787-16.282-16.06-18.199c-5.2725-1.9173-16.783-7.2013-16.783-7.2013l-0.0603-0.0603c-0.12875-0.042-0.24003-0.10298-0.36157-0.15065l-56.797-164.82-71.531 203.96-0.0301 0.0301c-1.949 2.4172-3.2053 4.2432-3.465 5.1524-1.3924 4.8733-13.202-27.869-18.772-34.831-0.98759-1.2345-2.1295-2.7271-3.3144-4.3087l95.28-274.71zm-157.7 22.478c-0.29551-0.007-0.59934 0.0102-0.87379 0.0301-1.6469 0.11757-2.8609 0.69829-3.4349 1.5969-1.138 1.7813-0.97006 8.8594 0.27118 11.179 1.2445 2.3254 1.4755 2.3676 4.0978 0.96418 4.214-2.2552 4.8994-13.333 0.84367-13.71-0.31529-0.0293-0.60842-0.0543-0.90393-0.0603zm-25.08 35.28c1.0807-0.0397 2.3054 0.1338 3.676 0.51223 3.4905 0.96381 3.7362 1.3639 3.7362 5.2126 0 2.4122-0.50439 4.0677-1.2052 4.0677-0.85826 0-0.99066 2.5672-0.54236 8.9187 0.53029 7.515 0.34689 8.8585-0.99432 8.8585-2.2228 0-5.445-1.8184-10.606-6.0262l-4.3991-3.6157v6.8397c0 3.7562-0.28405 7.5882-0.63275 8.4969-0.70779 1.8445-3.8006 2.0019-7.6834 0.45196-3.6573-1.4599-11.472-7.4885-11.51-8.8886-0.0178-0.64773-0.73526-1.7556-1.5969-2.4707-0.96265-0.79891-1.5668-3.0832-1.5668-5.9358 0-4.3331 0.18696-4.6237 2.3803-3.9471 1.2925 0.39872 3.571 1.4106 5.1222 2.1996 6.7652 3.4406 12.03 1.2913 17.024-6.9301 3.293-5.4207 5.5562-7.6248 8.7982-7.7436zm18.018 50.228c3.2472-0.0788 3.6892 0.44407 5.1524 3.4952 0.96417 2.0106 2.7522 8.8066 3.9471 15.126 2.888 15.27 17.306 70.248 19.917 75.93 1.135 2.4704 4.4812 10.386 7.4423 17.566 1.8816 4.5632 3.9268 9.1973 5.996 13.77 0.98275 2.1716 1.9586 4.3047 2.9528 6.4179 2.8502 6.058 5.687 11.763 8.3161 16.723 0.16236 0.30699 0.32153 0.63311 0.4821 0.93405 0.87201 1.6306 1.7222 3.1781 2.531 4.61 0.74667 1.3218 1.4609 2.5518 2.1393 3.676 0.14331 0.23793 0.28195 0.49482 0.42183 0.72314 0.0794 0.12937 0.16282 0.23534 0.24105 0.36158 0.28322 0.45761 0.54589 0.91086 0.81353 1.3258 0.2357 0.36458 0.47028 0.6946 0.69301 1.0244 0.0579 0.086 0.1238 0.18762 0.18079 0.27118 0.22584 0.32983 0.48203 0.67342 0.69301 0.96419 0.37498 0.51652 0.73031 1.001 1.0546 1.386 0.3252 0.3861 0.67296 0.83106 1.0546 1.3258 0.01 0.0122 0.0206 0.0177 0.0301 0.0301 0.12078 0.15679 0.26627 0.34608 0.3917 0.51223 0.27858 0.36954 0.54586 0.73439 0.84367 1.145 0.83752 1.1513 1.7339 2.4331 2.6515 3.7965 1.9412 2.8977 3.9296 6.0988 5.514 8.8886 6.7072 11.811 16.18 32.535 16.18 35.404 0 0.38137-0.12599 0.94491-0.30131 1.5668l-0.60261 1.6873c-0.31081 0.7699-0.64785 1.553-1.0546 2.2598-0.53399 0.92794-1.107 2.1766-1.5969 3.4349-0.0116 0.0298-0.0186 0.0606-0.0301 0.0903-0.24233 0.62846-0.47581 1.271-0.66288 1.8681-0.003 0.009 0.003 0.0215 0 0.0301-0.19162 0.61437-0.34901 1.1815-0.45196 1.6873-0.68857 3.3831-1.5098 5.0659-3.1336 5.7851-0.14762 0.0654-0.2903 0.13072-0.45196 0.18079-0.3233 0.10014-0.66886 0.16532-1.0546 0.21092-0.38571 0.0456-0.80897 0.0603-1.2655 0.0603h-3.1336l3.9773 7.3519c2.172 4.0212 4.3152 7.3218 4.7607 7.3218 1.9806 0 6.0823 8.448 7.5628 15.608 2.6068 12.607 2.0123 18.092-2.4406 21.754-2.98 2.4507-9.9869 5.37-12.896 5.3934-1.8852 0.0152-3.3935 0.94703-4.5498 2.7118-1.5033 2.2943-1.6878 4.4762-1.0847 15.758 0.38551 7.2113 1.2339 14.165 1.8681 15.397 2.7452 5.3315 6.6743 9.321 10.938 11.148 3.4226 1.4671 4.5951 2.5545 4.6703 4.3388 0.21693 5.1176-0.23502 10.914-1.2052 14.644-1.0903 4.1906 0.26554 8.3885 3.7362 11.269 3.4596 2.8712 3.7987 6.0358 1.0847 10.335-0.27661 0.43819-0.67507 1.1376-1.145 1.9886-0.0573 0.10362-0.0906 0.13166-0.15066 0.24105-0.34625 0.63067-0.68207 1.2928-1.1148 2.1092-0.2807 0.52847-0.49852 0.93436-0.81353 1.5367-0.9532 1.8198-1.9332 3.7554-3.1638 6.1768-1.5017 2.9498-3.1052 6.1093-4.9113 9.7323-0.19288 0.38721-0.37705 0.78213-0.57248 1.1751-1.765 3.5464-3.5169 7.1163-5.4236 10.998-1.8972 3.862-3.8112 7.7519-5.7249 11.691-0.11616 0.23919-0.21545 0.48417-0.33144 0.72315-1.3136 2.7057-2.558 5.2611-3.8266 7.8943-0.917 1.904-1.8362 3.7752-2.7118 5.6044-0.4281 0.89408-0.78968 1.6602-1.2052 2.531-1.8106 3.7952-3.4299 7.2601-4.9113 10.425-0.99787 2.1305-1.945 4.1371-2.7419 5.8755-4.7534-3.8428-7.987-9.614-10.244-15.909-0.0682-0.71735-0.14091-1.5018-0.21091-2.2297-0.31989-3.2833-0.6592-6.7174-1.0244-10.124l-2.6515-24.768 2.3502-1.8982c1.8482-1.5013 3.3205-1.7721 6.9-1.2354 0.54123 0.0812 1.0266 0.15609 1.4463 0.21091 0.41962 0.0549 0.77275 0.0977 1.0847 0.12053 0.31196 0.0229 0.56513 0.0147 0.7834 0 0.21828-0.0147 0.40382-0.0325 0.54236-0.0903 0.55415-0.23143 0.52477-0.8421 0.36157-1.9886-0.20912-1.4699-1.1696-2.5303-2.4406-2.7118-6.1739-0.88133-10.142-2.8499-11.691-5.8454-0.12111-0.23423-0.24816-0.50092-0.36157-0.78341-0.0222-0.0553-0.0384-0.12373-0.0603-0.18078-0.088-0.23054-0.18828-0.49616-0.27118-0.75327-0.0427-0.13294-0.0792-0.28236-0.12052-0.42184-0.0593-0.20056-0.12449-0.41948-0.18079-0.63274-0.0154-0.0584-0.0451-0.12142-0.0603-0.18079-0.0813-0.31805-0.13632-0.65224-0.21092-0.99432-0.1584-0.72634-0.2957-1.507-0.42183-2.3201-0.0163-0.10517-0.0445-0.19497-0.0603-0.30131-0.12638-0.85502-0.21358-1.7394-0.30131-2.6515-0.008-0.0818-0.0226-0.15895-0.0301-0.24105-0.0712-0.76794-0.13891-1.5653-0.18079-2.3502-0.0644-1.2066-0.10073-2.4275-0.0903-3.6157 0.0194-1.9799 0.14171-3.8769 0.3917-5.5441l0.75327-4.8812 7.0205 0.69301c1.9645 0.19358 3.5657 0.27079 4.9716 0.24105 0.46862-0.01 0.9288-0.0237 1.3559-0.0603 1.7084-0.1461 3.1253-0.50707 4.5799-1.1148 4.8286-2.0176 5.0084-4.4128 0.66288-8.5572-6.3458-6.0519-13.687-18.609-20.338-34.47-0.55427-1.3217-1.1134-2.6718-1.6572-4.0375-1.6313-4.0971-3.1989-8.3792-4.7004-12.806l-4.7607-13.92 1.2956-7.8039c0.70421-4.3634 1.0265-12.628 0.75327-18.772-0.48641-10.936-0.46454-11.02-5.1524-18.079-7.5388-11.352-7.6739-11.582-5.303-14.192 1.1249-1.2384 2.2991-3.6034 2.5912-5.2428 0.002-0.0107-0.002-0.0196 0-0.0301 0.43951-2.4933-0.003-3.2844-2.8624-4.9716-4.0304-2.378-14.386-14.345-16.934-19.615-0.98818-2.044-1.8593-5.8214-1.9585-8.4065-0.00096-0.0331 0.00097-0.0574 0-0.0904-0.0492-1.2626-0.12009-2.4766-0.18078-3.4349-0.00097-0.0157 0.00096-0.0146 0-0.0301-0.0611-0.96197-0.11354-1.6565-0.15066-1.838-0.0748-0.36765-2.2855-3.6235-4.9415-7.2314-3.5122-4.7709-5.1766-8.2778-6.1467-12.896-0.17953-0.85464-0.49937-2.1469-0.87379-3.6157-0.0986-0.38508-0.22222-0.90882-0.33144-1.3258-0.13417-0.51276-0.33422-1.1947-0.4821-1.7476-0.32844-1.2239-0.64358-2.4601-1.0244-3.8266-0.14565-0.52261-0.30077-1.0612-0.45196-1.5969h-0.0301c-0.82465-2.9223-1.6857-5.9541-2.5611-8.8585-6.0959-20.224-11.433-57.173-11.45-79.184-0.0129-17.453-1.4272-32.759-3.8568-42.002-2.0054-7.6295-1.9149-10.712 0.36157-13.227 3.142-3.4718 7.7973-0.37501 18.35 12.173 2.8817 3.4266 4.9681 5.3169 4.6402 4.1882-0.32797-1.1287-1.5904-5.582-2.8323-9.8528-2.1219-7.2967-2.1502-7.9606-0.57249-11.269 1.9719-4.1352 6.6103-6.4372 13.83-6.8096 0.58992-0.0305 1.1029-0.049 1.5668-0.0603zm45.166 166.93c-0.38573 0.002-0.39171 1.2956-0.39171 4.5498 0 0.5687 0.0298 1.2041 0.0904 1.8681 0.0548 0.59949 0.14033 1.2328 0.24105 1.8982 0.0108 0.0716 0.0188 0.13859 0.0301 0.21091 0.002 0.0104-0.002 0.0197 0 0.0301 0.0169 0.10724 0.0422 0.22272 0.0603 0.33144 0.0976 0.5889 0.23267 1.21 0.36157 1.838 0.10939 0.53157 0.23122 1.1025 0.36157 1.6572 0.0822 0.34939 0.15103 0.66729 0.24105 1.0244 0.005 0.0195-0.005 0.0408 0 0.0603 0.28198 1.1169 0.6115 2.2641 0.96419 3.4349 0.30637 1.0171 0.64144 2.0388 0.99431 3.0733 0.13378 0.39253 0.2519 0.78223 0.39171 1.1751 0.2224 0.62447 0.45641 1.2466 0.69301 1.8681 0.15003 0.39442 0.29671 0.78345 0.45196 1.1751 0.0281 0.0709 0.0621 0.14018 0.0903 0.21091 0.93655 2.345 1.9667 4.635 3.0432 6.7192 3.3957 6.5741 4.2102 4.8236 2.4406-5.3633-0.0803-0.46217-0.16156-0.96569-0.27118-1.4764-0.0967-0.45134-0.2441-0.96344-0.36157-1.4463-0.25882-1.064-0.56159-2.1734-0.90392-3.3445-0.68126-2.3306-1.4773-4.7896-2.3502-7.1712-0.43485-1.1864-0.87775-2.3282-1.3258-3.4349-0.33225-0.82073-0.66578-1.5726-0.99432-2.3201-0.11704-0.2663-0.21567-0.5587-0.33144-0.81354-0.0606-0.13401-0.12057-0.23095-0.18078-0.36157-0.37995-0.823-0.73069-1.594-1.0847-2.2598-0.0292-0.0551-0.0613-0.0967-0.0903-0.15066-0.094-0.17472-0.17974-0.32068-0.27118-0.48209-0.0912-0.16115-0.18287-0.33502-0.27117-0.48209-0.17704-0.29467-0.34858-0.54977-0.51223-0.78341-0.55111-0.78684-0.88342-1.2367-1.1148-1.2354zm91.086 14.583c0.88282-0.0255 1.6811 0.0629 2.2297 0.27117 0.71809 0.27277 1.3258 1.6024 1.3258 2.9227 0 3.4048 6.7779 11.115 11.6 13.227 4.3278 1.8956 5.0822 3.3322 2.3803 4.369-5.1173 1.9637-12.869-0.0766-17.837-4.7306-2.7099-2.5386-6.9901-12.007-6.2672-13.89 0.40767-1.0624 3.9201-2.0932 6.5685-2.1694zm25.25 26.063c0.50581-0.0114 1.0954-0.004 1.7175 0 2.986 0.022 7.4268 0.21062 14.222 0.54236 10.602 0.51765 20.788 1.4919 22.658 2.1694 4.3486 1.5752 5.3405 5.1619 3.1336 11.299-1.5817 4.3984-1.5088 4.7611 0.90392 9.9432 1.3789 2.9615 2.4707 6.138 2.4707 7.0808 0.006 0.94274 1.9309 4.0183 4.2485 6.8096 5.2373 6.3074 8.813 13.485 11.058 22.297 1.3729 5.3889 1.5661 9.7961 1.1148 21.363-0.39262 10.063-0.4081 13.385 0.45196 15.879 0.14335 0.41561 0.31845 0.80869 0.51223 1.2052 0.19377 0.39654 0.4142 0.80327 0.66288 1.2354 1.8716 3.2519 2.1223 3.7561 0.93405 10.606-0.16975 0.97858-0.37494 2.0801-0.60261 3.3445-2.949 16.379-6.6379 22.593-23.11 38.959-12.173 12.095-17.171 16.137-23.954 16.813-0.56528 0.0563-1.1524 0.0782-1.7476 0.0904-1.7856 0.0365-3.7245-0.0987-5.9659-0.36157-3.7909-0.44467-8.3403-0.77606-10.064-0.75327-0.43085 0.006-0.9865 0.0249-1.5969 0.0603-0.61043 0.0354-1.2824 0.0914-1.9886 0.15065-0.70621 0.0592-1.4212 0.13388-2.1393 0.21092-0.71814 0.077-1.4328 0.15212-2.079 0.24105-0.71785 0.0988-1.4062 0.16132-2.079 0.18078-4.7095 0.13621-8.3824-1.6988-11.872-5.8454-1.8627-2.2138-2.766-4.3492-2.5611-6.0864 0.41926-3.5535 7.8003-9.1617 13.318-10.094 7.0816-1.1964 8.0658-6.6397 1.5066-8.286-1.4332-0.35971-4.9076 0.0616-7.7436 0.90393-6.1253 1.819-10.411 0.9181-14.312-2.983-1.9305-1.9301-2.4823-3.3054-2.0188-5.1524 0.0558-0.2223 0.11533-0.435 0.18079-0.63274 0.0655-0.19775 0.13515-0.36902 0.21091-0.54236 0.30304-0.69335 0.68203-1.1981 1.1751-1.5065 0.12327-0.0771 0.25496-0.1575 0.3917-0.21092 1.2306-0.48078 3.0277 0.005 5.6043 1.386 3.0349 1.6266 5.0595 1.9901 8.5873 1.5065 7.0049-0.96011 16.631-5.7325 20.158-9.9733l3.1035-3.7664-3.2843-2.7419c-5.1593-4.3583-15.028-7.6628-23.11-7.6834-6.202-0.0156-7.3065 0.33997-9.9733 2.8926-1.5644 1.4974-2.8103 2.3768-3.9472 2.6515-0.1624 0.0392-0.3241 0.0757-0.48209 0.0903-1.2639 0.11735-2.4143-0.5612-3.7061-1.9886-1.0563-1.1672-2.7258-2.0291-3.676-1.8681-1.0926 0.18508-2.7132-0.40974-4.5799-1.5668-0.46667-0.28926-0.95145-0.64031-1.4463-0.99432-5.4431-3.894-12.331-11.459-15.306-17.627-1.141-2.3653-1.8817-4.6072-2.2598-6.9-0.063-0.38214-0.1387-0.7596-0.18078-1.145-0.3787-3.4684 0.0974-7.1105 1.386-11.45 1.8626-6.2724 4.7144-8.705 9.0694-7.834 0.28405 0.0568 0.55765 0.0924 0.81353 0.12053 0.25589 0.0281 0.49057 0.062 0.72315 0.0603 0.23257-0.002 0.44876-0.0272 0.66287-0.0603 0.21412-0.0331 0.43225-0.085 0.63275-0.15066 0.802-0.26233 1.5119-0.79198 2.29-1.6271 1.1426-1.2265 2.6758-2.1996 3.4349-2.1996 0.75923 0 3.0372-1.1364 5.0921-2.531 3.1839-2.1606 3.9774-2.295 5.0318-1.0244 1.8462 2.2245 3.6516 1.7858 6.1467-1.386 3.8167-4.8523 1.1278-13.215-5.3633-16.572-5.0166-2.5942-10.275-0.63006-14.644 5.4537-3.1414 4.3744-8.7534 8.5417-9.9131 7.3821-0.26415-0.26419-0.54967-3.0869-0.66288-6.2672-0.25109-7.0489 1.865-10.453 9.0091-14.372 1.3444-0.73767 2.9565-1.8243 4.4594-2.983 0.75142-0.57932 1.4854-1.1688 2.1393-1.7476 0.65394-0.57879 1.2222-1.1494 1.6873-1.6572 1.8054-1.9711 3.0307-2.9583 5.0017-3.5856 0.39421-0.12546 0.83108-0.23006 1.2956-0.33144 0.9291-0.20278 2.0067-0.37649 3.3445-0.54236 3.4464-0.42727 7.9326-1.347 9.9432-2.0489 3.3098-1.1555 15.034-9.3691 20.399-14.282 1.0974-1.005 1.9432-1.4877 5.4838-1.5668zm3.0131 31.276c-1.271 0.0292-2.9747 0.14476-4.7607 0.33143-7.7044 0.80527-11.6 3.3088-11.6 7.5327 0 2.2842 0.23981 2.7359 2.2297 2.531 0.28427-0.0293 0.60407-0.0677 0.96419-0.12053 3.962-0.58151 7.5931 2.3596 6.8096 5.4838-0.28394 1.1321-0.50663 1.6872 1.7175 1.8681 0.55602 0.0452 1.2381 0.0592 2.1393 0.0603 2.7037 0.003 7.1448-0.16728 14.312-0.45197 1.4362-0.0571 3.6089 0.24113 4.7908 0.63275 1.0594 0.35106 2.1981 0.18891 3.4048-0.48209 0.20112-0.11184 0.42861-0.25197 0.63274-0.3917 0.20414-0.13973 0.39576-0.28449 0.60262-0.45197 2.1684-1.7559 2.3288-2.2734 1.1148-3.7362-0.35261-0.42487-1.277-0.95556-2.5611-1.5367-0.64208-0.29056-1.3644-0.59766-2.1694-0.90393-4.0254-1.5313-9.7971-3.1604-14.403-3.917-4.4054-0.72376-4.6615-1.1364-2.1996-3.8568 0.95391-1.054 1.5202-2.1558 1.2354-2.4406-0.14235-0.1424-0.9888-0.17984-2.2598-0.15065zm96.238 41.4c0.69442-0.0295 1.2354 2.458 1.2354 6.8096 0 5.3944-0.50936 7.6622-2.5009 10.817-2.999 4.7506-8.2684 9.3297-12.896 11.269-4.2389 1.7763-8.0176 1.7994-9.4611 0.0603-2.0251-2.4402 1.0549-6.0814 9.0393-10.606 7.8741-4.4621 11.868-9.0989 13.258-15.427 0.42963-1.9561 0.90909-2.905 1.3258-2.9227zm-135.74 9.9733c-0.12105-0.006-0.22634 0.01-0.33144 0.0301-0.50443 0.0991-0.82722 0.47424-1.2956 1.1148-0.73333 1.0028-1.4055 3.0195-1.4463 4.4895-0.0403 1.47-0.43852 3.6118-0.90393 4.7607-0.56589 1.3969-0.28906 2.6646 0.7834 3.8869 1.9492 2.2214 2.3876 2.2859 4.9716 0.33144 1.1151-0.84343 2.8112-1.5786 3.7965-1.5969 0.86218-0.016 2.9122-1.1295 4.7908-2.6214 0.26839-0.21312 0.52562-0.43653 0.78341-0.66288 0.70473-0.61876 1.3836-1.1515 2.0489-1.5969 0.33266-0.22269 0.65803-0.418 0.99431-0.60262 1.6814-0.9231 3.4595-1.392 5.9057-1.6271 5.683-0.54606 6.1671-1.8564 1.6572-4.3991-2.5506-1.438-3.1172-1.3491-7.3519 0.96418l-4.5498 2.5009-5.0921-2.8022c-2.5974-1.4517-3.9134-2.1338-4.7607-2.1694zm114.29 24.647c0.0647-0.015 0.14814-0.002 0.21092 0 0.45653 0.0107 0.83679 0.44417 1.1751 1.3258 0.34896 0.90946 1.2172 1.6572 1.9284 1.6572 2.0687 0 4.7483 3.6066 4.7305 6.3576-0.0215 3.41-1.0254 4.7995-4.4895 6.1166-1.6071 0.61101-2.8004 0.96913-3.7664 1.0244-1.6098 0.0922-2.575-0.6398-3.676-2.3201-1.4304-2.1831-1.4071-2.9672 0.3917-8.0751 1.3359-3.7935 2.5252-5.8604 3.4952-6.0864z"
    />
  </g
  >
  <metadata
    >
    <rdf:RDF
      >
      <cc:Work
        >
        <dc:format
          >image/svg+xml</dc:format
        >
        <dc:type
            rdf:resource="http://purl.org/dc/dcmitype/StillImage"
        />
        <cc:license
            rdf:resource="http://creativecommons.org/licenses/publicdomain/"
        />
        <dc:publisher
          >
          <cc:Agent
              rdf:about="http://openclipart.org/"
            >
            <dc:title
              >Openclipart</dc:title
            >
          </cc:Agent
          >
        </dc:publisher
        >
        <dc:title
          >woman power</dc:title
        >
        <dc:date
          >2011-08-05T17:25:22</dc:date
        >
        <dc:description
          >idea: http://radicalgraphics.org/collection/view_photo.php?set_albumName=Feminist&amp;id=starfist</dc:description
        >
        <dc:source
          >https://openclipart.org/detail/153811/woman-power-by-worker-153811</dc:source
        >
        <dc:creator
          >
          <cc:Agent
            >
            <dc:title
              >worker</dc:title
            >
          </cc:Agent
          >
        </dc:creator
        >
        <dc:subject
          >
          <rdf:Bag
            >
            <rdf:li
              >communism</rdf:li
            >
            <rdf:li
              >demonstration</rdf:li
            >
            <rdf:li
              >fight</rdf:li
            >
            <rdf:li
              >fist</rdf:li
            >
            <rdf:li
              >girl</rdf:li
            >
            <rdf:li
              >luchadoras</rdf:li
            >
            <rdf:li
              >mujeres</rdf:li
            >
            <rdf:li
              >power</rdf:li
            >
            <rdf:li
              >revolution</rdf:li
            >
            <rdf:li
              >socialism</rdf:li
            >
            <rdf:li
              >star</rdf:li
            >
            <rdf:li
              >unite</rdf:li
            >
            <rdf:li
              >women</rdf:li
            >
            <rdf:li
              >worker</rdf:li
            >
          </rdf:Bag
          >
        </dc:subject
        >
      </cc:Work
      >
      <cc:License
          rdf:about="http://creativecommons.org/licenses/publicdomain/"
        >
        <cc:permits
            rdf:resource="http://creativecommons.org/ns#Reproduction"
        />
        <cc:permits
            rdf:resource="http://creativecommons.org/ns#Distribution"
        />
        <cc:permits
            rdf:resource="http://creativecommons.org/ns#DerivativeWorks"
        />
      </cc:License
      >
    </rdf:RDF
    >
  </metadata
  >
</svg
>
